…
# Now using odbc
odbc <- dbConnect(odbc::odbc(), dsn = "PostgreSQL")
system.time(odbc_result <- dbReadTable(odbc, "flights"))
#>    user  system elapsed 
#>   5.119   0.290   6.771

library(tibble)
as_tibble(odbc_result)
#> # A tibble: 336,776 × 20
#>    row.names  year month   day dep_time sched_dep_time dep_delay arr_time
#>        <chr> <int> <int> <int>    <int>          <int>     <dbl>    <int>
#> 1          1  2013     1     1      517            515         2      830
#> 2          2  2013     1     1      533            529         4      850
#> 3          3  2013     1     1      542            540         2      923
#> 4          4  2013     1     1      544            545        -1     1004
#> 5          5  2013     1     1      554            600        -6      812
#> 6          6  2013     1     1      554            558        -4      740
#> 7          7  2013     1     1      555            600        -5      913
#> 8          8  2013     1     1      557            600        -3      709
#> 9          9  2013     1     1      557            600        -3      838
#> 10        10  2013     1     1      558            600        -2      753
#> # ... with 336,766 more rows, and 12 more variables: sched_arr_time <int>,
#> #   arr_delay <dbl>, carrier <chr>, flight <int>, tailnum <chr>,
#> #   origin <chr>, dest <chr>, air_time <dbl>, distance <dbl>, hour <dbl>,
#> #   minute <dbl>, time_hour <dttm>
…
